5 Juurdekasvude erinevus (Dif-Dif) – Põhjuslike seoste hindamine majanduses
…
Teeme mudeli eraldi töötavate, töötute ja mitteaktiivsete jaoks.

library(broom)

results <- dfl %>%
  group_by(seisund) %>%
  group_modify(~ broom::tidy(
    lm(dpalk2008 ~ aegkoolitusest + mees + eestlane +
         factor(haridus) + vanusgr + factor(aasta),
       data = .x)
  ))
results

# A tibble: 66 × 6
# Groups:   seisund [3]
   seisund term             estimate std.error statistic  p.value
     <int> <chr>               <dbl>     <dbl>     <dbl>    <dbl>
 1       1 (Intercept)        2.03      0.162     12.6   5.05e-36
 2       1 aegkoolitusest-3   0.0686    0.181      0.379 7.04e- 1
 3       1 aegkoolitusest-2   0.251     0.125      2.00  4.54e- 2
 4       1 aegkoolitusest-1   0.267     0.122      2.19  2.88e- 2
 5       1 aegkoolitusest1    0.558     0.122      4.56  5.05e- 6
 6       1 aegkoolitusest2    0.544     0.125      4.35  1.35e- 5
 7       1 aegkoolitusest3    0.258     0.170      1.52  1.28e- 1
 8       1 mees              -0.418     0.0615    -6.80  1.05e-11
 9       1 eestlane          -0.281     0.0640    -4.40  1.10e- 5
10       1 factor(haridus)3   0.220     0.118      1.86  6.26e- 2
# ℹ 56 more rows
…
